{
    "courseCardData": {
        "content": [
            {
                "id": 4861,
                "topic": "Prevention of accident at construction work",
                "courseLevel": "Postgraduate",
                "courseStatus": "Lesson",
                "status": null,
                "language": "ENGLISH",
                "voice": "Female",
                "createdDate": "2024-04-19T12:07:32.763",
                "createdBy": "Mayank ",
                "outlineStatus": "Generated",
                "lessonStatus": "Generated",
                "assetStatus": null,
                "publishStatus": null,
                "moduleCount": null,
                "lessonCount": null,
                "asset": [
                    {
                        "type": "image",
                        "path": "src/assets/images/baigan.jpg",
                        "queryLogEntryId": {
                            "timestamp": 1713528504,
                            "counter": 2288012,
                            "timeSecond": 1713528504,
                            "machineIdentifier": 3178393,
                            "processIdentifier": 2194,
                            "date": "2024-04-19T12:08:24.000+0000",
                            "time": 1713528504000
                        },
                        "fileName": "CourseImage_4861.png",
                        "isFailedForSafetySystem": false,
                        "isImageGenerationFailed": false,
                        "timestamp": "2024-04-19T12:08:24.869+0000"
                    }
                ],
                "outcomeStatus": null,
                "countryName": null
            },
            {
                "id": 4860,
                "topic": "Preventing School Violence",
                "courseLevel": "Postgraduate",
                "courseStatus": "Asset",
                "status": null,
                "language": "ENGLISH",
                "voice": "Female",
                "createdDate": "2024-04-19T11:45:51.86",
                "createdBy": "Mayank ",
                "outlineStatus": "Generated",
                "lessonStatus": "Generated",
                "assetStatus": "Generated",
                "publishStatus": null,
                "moduleCount": null,
                "lessonCount": null,
                "asset": [
                    {
                        "type": "image",
                        "path": "src/assets/images/baigan.jpg",
                        "queryLogEntryId": {
                            "timestamp": 1713527176,
                            "counter": 2287999,
                            "timeSecond": 1713527176,
                            "machineIdentifier": 3178393,
                            "processIdentifier": 2194,
                            "date": "2024-04-19T11:46:16.000+0000",
                            "time": 1713527176000
                        },
                        "fileName": "CourseImage_4860.png",
                        "isFailedForSafetySystem": false,
                        "isImageGenerationFailed": false,
                        "timestamp": "2024-04-19T11:46:16.479+0000"
                    }
                ],
                "outcomeStatus": "Generated",
                "countryName": null
            },
            {
                "id": 4859,
                "topic": "Criminal Behaviour Analysis",
                "courseLevel": "Key Stage 5",
                "courseStatus": "Publish",
                "status": null,
                "language": "ENGLISH",
                "voice": "Female",
                "createdDate": "2024-04-19T11:36:09.333",
                "createdBy": "Mrunal Test",
                "outlineStatus": "Generated",
                "lessonStatus": "Generated",
                "assetStatus": "Generated",
                "publishStatus": "Generated",
                "moduleCount": null,
                "lessonCount": null,
                "asset": [
                    {
                        "type": "image",
                        "path": "src/assets/images/baigan.jpg",
                        "queryLogEntryId": {
                            "timestamp": 1713526585,
                            "counter": 2287985,
                            "timeSecond": 1713526585,
                            "machineIdentifier": 3178393,
                            "processIdentifier": 2194,
                            "date": "2024-04-19T11:36:25.000+0000",
                            "time": 1713526585000
                        },
                        "fileName": "CourseImage_4859.png",
                        "isFailedForSafetySystem": false,
                        "isImageGenerationFailed": false,
                        "timestamp": "2024-04-19T11:36:25.522+0000"
                    }
                ],
                "outcomeStatus": "Generated",
                "countryName": null
            },
            {
                "id": 4856,
                "topic": "Crime Prevention ",
                "courseLevel": "Undergrad",
                "courseStatus": "Publish",
                "status": null,
                "language": "ENGLISH",
                "voice": "Female",
                "createdDate": "2024-04-19T10:18:20.643",
                "createdBy": "Mrunal Test",
                "outlineStatus": "Generated",
                "lessonStatus": "Generated",
                "assetStatus": "Generated",
                "publishStatus": "Generated",
                "moduleCount": null,
                "lessonCount": null,
                "asset": [
                    {
                        "type": "image",
                        "path": "src/assets/images/baigan.jpg",
                        "queryLogEntryId": {
                            "timestamp": 1713521916,
                            "counter": 9066297,
                            "timeSecond": 1713521916,
                            "machineIdentifier": 4392690,
                            "processIdentifier": 27628,
                            "date": "2024-04-19T10:18:36.000+0000",
                            "time": 1713521916000
                        },
                        "fileName": "CourseImage_4856.png",
                        "isFailedForSafetySystem": false,
                        "isImageGenerationFailed": false,
                        "timestamp": "2024-04-19T10:18:36.434+0000"
                    }
                ],
                "outcomeStatus": "Generated",
                "countryName": null
            },
            {
                "id": 4855,
                "topic": "Safety for construction Work",
                "courseLevel": "Key Stage 5",
                "courseStatus": "Asset",
                "status": null,
                "language": "ENGLISH",
                "voice": "Female",
                "createdDate": "2024-04-19T09:56:44.773",
                "createdBy": "Mayank ",
                "outlineStatus": "Generated",
                "lessonStatus": "Generated",
                "assetStatus": "Generated",
                "publishStatus": null,
                "moduleCount": null,
                "lessonCount": null,
                "asset": [
                    {
                        "type": "image",
                        "path": "src/assets/images/baigan.jpg",
                        "queryLogEntryId": {
                            "timestamp": 1713520626,
                            "counter": 9066264,
                            "timeSecond": 1713520626,
                            "machineIdentifier": 4392690,
                            "processIdentifier": 27628,
                            "date": "2024-04-19T09:57:06.000+0000",
                            "time": 1713520626000
                        },
                        "fileName": "CourseImage_4855.png",
                        "isFailedForSafetySystem": false,
                        "isImageGenerationFailed": false,
                        "timestamp": "2024-04-19T09:57:06.614+0000"
                    }
                ],
                "outcomeStatus": "Generated",
                "countryName": null
            },
            {
                "id": 4854,
                "topic": "Safety while burning patient handling",
                "courseLevel": "Postgraduate",
                "courseStatus": "Asset",
                "status": null,
                "language": "ENGLISH",
                "voice": "Female",
                "createdDate": "2024-04-19T06:15:01.537",
                "createdBy": "Mayank ",
                "outlineStatus": "Generated",
                "lessonStatus": "Generated",
                "assetStatus": "Failed",
                "publishStatus": null,
                "moduleCount": null,
                "lessonCount": null,
                "asset": [
                    {
                        "type": "image",
                        "path": "src/assets/images/baigan.jpg",
                        "queryLogEntryId": {
                            "timestamp": 1713507356,
                            "counter": 9066106,
                            "timeSecond": 1713507356,
                            "machineIdentifier": 4392690,
                            "processIdentifier": 27628,
                            "date": "2024-04-19T06:15:56.000+0000",
                            "time": 1713507356000
                        },
                        "fileName": "CourseImage_4854.png",
                        "isFailedForSafetySystem": false,
                        "isImageGenerationFailed": false,
                        "timestamp": "2024-04-19T06:15:56.150+0000"
                    }
                ],
                "outcomeStatus": "Generated",
                "countryName": null
            },
            {
                "id": 4853,
                "topic": "Safety for construction Work",
                "courseLevel": "Postgraduate",
                "courseStatus": "Asset",
                "status": null,
                "language": "ENGLISH",
                "voice": "Female",
                "createdDate": "2024-04-19T06:01:02.153",
                "createdBy": "Mayank ",
                "outlineStatus": "Generated",
                "lessonStatus": "Generated",
                "assetStatus": "Generated",
                "publishStatus": null,
                "moduleCount": null,
                "lessonCount": null,
                "asset": [
                    {
                        "type": "image",
                        "path": "src/assets/images/baigan.jpg",
                        "queryLogEntryId": {
                            "timestamp": 1713506556,
                            "counter": 9066093,
                            "timeSecond": 1713506556,
                            "machineIdentifier": 4392690,
                            "processIdentifier": 27628,
                            "date": "2024-04-19T06:02:36.000+0000",
                            "time": 1713506556000
                        },
                        "fileName": "CourseImage_4853.png",
                        "isFailedForSafetySystem": false,
                        "isImageGenerationFailed": false,
                        "timestamp": "2024-04-19T06:02:36.903+0000"
                    }
                ],
                "outcomeStatus": "Generated",
                "countryName": null
            },
            {
                "id": 4852,
                "topic": "Gravitational Theory ",
                "courseLevel": "Undergrad",
                "courseStatus": "Publish",
                "status": null,
                "language": "ENGLISH",
                "voice": "Female",
                "createdDate": "2024-04-19T06:00:29.917",
                "createdBy": "Mrunal Test",
                "outlineStatus": "Generated",
                "lessonStatus": "Generated",
                "assetStatus": "Generated",
                "publishStatus": "Generated",
                "moduleCount": null,
                "lessonCount": null,
                "asset": [
                    {
                        "type": "image",
                        "path": "src/assets/images/baigan.jpg",
                        "queryLogEntryId": {
                            "timestamp": 1713506446,
                            "counter": 9066090,
                            "timeSecond": 1713506446,
                            "machineIdentifier": 4392690,
                            "processIdentifier": 27628,
                            "date": "2024-04-19T06:00:46.000+0000",
                            "time": 1713506446000
                        },
                        "fileName": "CourseImage_4852.png",
                        "isFailedForSafetySystem": false,
                        "isImageGenerationFailed": false,
                        "timestamp": "2024-04-19T06:00:46.151+0000"
                    }
                ],
                "outcomeStatus": "Generated",
                "countryName": null
            },
            {
                "id": 4851,
                "topic": "How to avoid suicide",
                "courseLevel": "Postgraduate",
                "courseStatus": "Asset",
                "status": null,
                "language": "ENGLISH",
                "voice": "Female",
                "createdDate": "2024-04-19T05:50:09.883",
                "createdBy": "Mayank ",
                "outlineStatus": "Generated",
                "lessonStatus": "Generated",
                "assetStatus": "Generated",
                "publishStatus": null,
                "moduleCount": null,
                "lessonCount": null,
                "asset": [
                    {
                        "type": "image",
                        "path": "src/assets/images/baigan.jpg",
                        "queryLogEntryId": {
                            "timestamp": 1713505827,
                            "counter": 9232961,
                            "timeSecond": 1713505827,
                            "machineIdentifier": 13324409,
                            "processIdentifier": 16623,
                            "date": "2024-04-19T05:50:27.000+0000",
                            "time": 1713505827000
                        },
                        "fileName": "CourseImage_4851.png",
                        "isFailedForSafetySystem": false,
                        "isImageGenerationFailed": false,
                        "timestamp": "2024-04-19T05:50:27.735+0000"
                    }
                ],
                "outcomeStatus": "Generated",
                "countryName": null
            },
            {
                "id": 4850,
                "topic": "How to avoid suicide after appraisal in company ",
                "courseLevel": "International Baccalaureate",
                "courseStatus": "Lesson",
                "status": null,
                "language": "ENGLISH",
                "voice": "Male",
                "createdDate": "2024-04-18T11:46:37.63",
                "createdBy": "Mayank ",
                "outlineStatus": "Generated",
                "lessonStatus": "Generated",
                "assetStatus": null,
                "publishStatus": null,
                "moduleCount": null,
                "lessonCount": null,
                "asset": [
                    {
                        "type": "image",
                        "path": "src/assets/images/baigan.jpg",
                        "queryLogEntryId": {
                            "timestamp": 1713440815,
                            "counter": 15579375,
                            "timeSecond": 1713440815,
                            "machineIdentifier": 14419762,
                            "processIdentifier": 13415,
                            "date": "2024-04-18T11:46:55.000+0000",
                            "time": 1713440815000
                        },
                        "fileName": "CourseImage_4850.png",
                        "isFailedForSafetySystem": false,
                        "isImageGenerationFailed": false,
                        "timestamp": "2024-04-18T11:46:55.716+0000"
                    }
                ],
                "outcomeStatus": null,
                "countryName": null
            },
            {
                "id": 4849,
                "topic": "Libra Horoscope Today, April 18, 2024",
                "courseLevel": "Postgraduate",
                "courseStatus": "Publish",
                "status": null,
                "language": "ENGLISH",
                "voice": "Female",
                "createdDate": "2024-04-18T10:34:34.017",
                "createdBy": "Genaie Genaie Tushar",
                "outlineStatus": "Generated",
                "lessonStatus": "Generated",
                "assetStatus": "Generated",
                "publishStatus": "Generated",
                "moduleCount": null,
                "lessonCount": null,
                "asset": [
                    {
                        "type": "image",
                        "path": "src/assets/images/baigan.jpg",
                        "queryLogEntryId": {
                            "timestamp": 1713436487,
                            "counter": 15579364,
                            "timeSecond": 1713436487,
                            "machineIdentifier": 14419762,
                            "processIdentifier": 13415,
                            "date": "2024-04-18T10:34:47.000+0000",
                            "time": 1713436487000
                        },
                        "fileName": "CourseImage_4849.png",
                        "isFailedForSafetySystem": false,
                        "isImageGenerationFailed": false,
                        "timestamp": "2024-04-18T10:34:47.635+0000"
                    }
                ],
                "outcomeStatus": "Generated",
                "countryName": null
            },
            {
                "id": 4848,
                "topic": "Phonics ",
                "courseLevel": "Key Stage 5",
                "courseStatus": "Publish",
                "status": null,
                "language": "ENGLISH",
                "voice": "Female",
                "createdDate": "2024-04-18T09:25:53.41",
                "createdBy": "Mrunal Test",
                "outlineStatus": "Generated",
                "lessonStatus": "Generated",
                "assetStatus": "Generated",
                "publishStatus": "Generated",
                "moduleCount": null,
                "lessonCount": null,
                "asset": [
                    {
                        "type": "image",
                        "path": "src/assets/images/baigan.jpg",
                        "queryLogEntryId": {
                            "timestamp": 1713432374,
                            "counter": 15579343,
                            "timeSecond": 1713432374,
                            "machineIdentifier": 14419762,
                            "processIdentifier": 13415,
                            "date": "2024-04-18T09:26:14.000+0000",
                            "time": 1713432374000
                        },
                        "fileName": "CourseImage_4848.png",
                        "isFailedForSafetySystem": false,
                        "isImageGenerationFailed": false,
                        "timestamp": "2024-04-18T09:26:14.456+0000"
                    }
                ],
                "outcomeStatus": "Generated",
                "countryName": null
            }
        ],
        "pageable": {
            "sort": {
                "unsorted": false,
                "sorted": true,
                "empty": false
            },
            "pageSize": 12,
            "pageNumber": 0,
            "offset": 0,
            "paged": true,
            "unpaged": false
        },
        "totalPages": 2,
        "last": false,
        "totalElements": 20,
        "first": true,
        "numberOfElements": 12,
        "sort": {
            "unsorted": false,
            "sorted": true,
            "empty": false
        },
        "size": 12,
        "number": 0,
        "empty": false
    }
}